<svg xmlns="http://www.w3.org/2000/svg" width="40" height="40" viewBox="0 0 40 40">
  <g id="Groupe_13053" data-name="Groupe 13053" transform="translate(8, 8)">
    <path id="Tracé_22" data-name="Tracé 22" d="M551.329,317.3a7.1,7.1,0,0,1,11.886,3.354h4.311a11.318,11.318,0,0,0-22.395,0h4.31A6.8,6.8,0,0,1,551.329,317.3Z" transform="translate(-545.131 -310.964)" fill="#35342f" />
    <path id="Tracé_23" data-name="Tracé 23" d="M561.324,331.048a7.089,7.089,0,0,1-11.776-2.983H545.2a10.967,10.967,0,0,0,3.02,5.924,10.381,10.381,0,0,0,7.765,3.334,11.027,11.027,0,0,0,3.89-.7,10.556,10.556,0,0,0,3.544-2.265v2.609h4.245v-8.905h-4.526A6.939,6.939,0,0,1,561.324,331.048Z" transform="translate(-545.146 -314.752)" fill="#35342f" />
  </g>
</svg>
