<svg version="1.1" id="layer" xmlns="http://www.w3.org/2000/svg" xmlns:xlink="http://www.w3.org/1999/xlink" x="0px" y="0px" viewBox="0 0 652 652" style="enable-background:new 0 0 652 652;" xml:space="preserve">
<style type="text/css">
	.st0{fill:#6FB62A;}
	.st1{fill:#FF8200;}
	.st2{fill:#0066B1;}
	.st3{fill:#FF619D;}
	.st4{fill:#FF0000;}
	.st5{fill:#FC0010;}
	.st6{fill:#00BCEE;}
	.st7{fill:#81569D;}
	.st8{fill:#A51C7A;}
	.st9{fill:#60287C;}
	.st10{fill:#9B72B0;}
	.st11{fill:#425CA3;}
</style>
    <rect x="20.5" y="244.5" class="st0" width="163.9" height="30.9"/>
    <rect x="20.5" y="306.3" class="st1" width="163.9" height="30.9"/>
    <rect x="20.5" y="368.2" class="st2" width="163.9" height="30.9"/>
    <rect x="456.6" y="244.5" class="st1" width="163.9" height="30.9"/>
    <rect x="456.6" y="306.3" class="st3" width="163.9" height="30.9"/>
    <rect x="456.6" y="275.4" class="st4" width="30.9" height="30.9"/>
    <rect x="456.6" y="306.3" class="st5" width="30.9" height="30.9"/>
    <rect x="456.6" y="244.5" class="st4" width="30.9" height="30.9"/>
    <rect x="589.6" y="306.3" class="st6" width="30.9" height="92.8"/>
    <rect x="589.6" y="306.3" class="st7" width="30.9" height="30.9"/>
    <rect x="456.6" y="368.2" class="st8" width="163.9" height="30.9"/>
    <rect x="589.6" y="368.2" class="st9" width="30.9" height="30.9"/>
    <polygon class="st6" points="250.2,244.5 339.5,399.1 301.5,399.1 212.3,244.5 "/>
    <polygon class="st10" points="428.6,244.5 339.5,399.1 301.5,399.1 390.6,244.5 "/>
    <polygon class="st11" points="301.5,399.1 339.5,399.1 320.5,366.2 "/>
</svg>
